{
  "users": [
    {
      "name": "Farid rusdyanto 1",
      "email": "faridrusdyanto@yahoo.com",
      "bidang": "RN DevApp 1",
      "id": 1
    },
    {
      "name": "tes",
      "email": "tes@gmail.com",
      "bidang": "tes",
      "id": 5
    }
  ]
}